%YAML 1.1
%TAG !u! tag:unity3d.com,2011:
--- !u!1045 &1
EditorBuildSettings:
  m_ObjectHideFlags: 0
  serializedVersion: 2
  m_Scenes:
  - enabled: 1
    path: Assets/_Scenes/TitleScreen.unity
    guid: cc836990d9f62134582188b534372bc0
  - enabled: 1
    path: Assets/_Scenes/MainMenu.unity
    guid: c5ebb26451856274d883716bd75ca9f0
  - enabled: 1
    path: Assets/_Scenes/Main_Game.unity
    guid: dcf27ad7acab1e14bad3098ea5fdd481
